pointsTo(57065,11801)
pointsTo(29382,22766)
pointsTo(49279,34276)
pointsTo(15920,14550)
pointsTo(45387,62834)
pointsTo(36672,4863)
pointsTo(59094,20492)
pointsTo(46425,35709)
pointsTo(49003,7992)
pointsTo(39492,10619)
pointsTo(10166,25207)
pointsTo(24451,40700)
pointsTo(14941,38434)
pointsTo(35671,37789)
pointsTo(25288,13941)
pointsTo(62111,34441)
pointsTo(9534,7816)
pointsTo(4417,8765)
pointsTo(1280,55366)
pointsTo(28353,62080)
pointsTo(3868,16301)
pointsTo(43069,22133)
pointsTo(47624,63699)
pointsTo(4789,9557)
pointsTo(15528,50163)
pointsTo(44889,18930)
pointsTo(62878,30745)
pointsTo(7517,52900)
pointsTo(46100,5353)
pointsTo(34788,50053)
pointsTo(8016,5171)
pointsTo(44746,30615)
pointsTo(4983,8092)
pointsTo(55919,13001)
pointsTo(46633,54168)
pointsTo(8128,330)
pointsTo(26345,44007)
pointsTo(37913,49420)
pointsTo(61515,15852)
pointsTo(51277,61139)
pointsTo(1490,6251)
pointsTo(39825,59268)
pointsTo(17146,52226)
pointsTo(5979,36316)
pointsTo(37624,53455)
pointsTo(42543,1152)
pointsTo(60835,32503)
pointsTo(51959,41613)
pointsTo(30616,10986)
pointsTo(35447,24528)
pointsTo(30661,52176)
pointsTo(60880,24262)
pointsTo(22254,6182)
pointsTo(4844,17583)
pointsTo(43717,59406)
pointsTo(11151,35983)
pointsTo(14920,39602)
pointsTo(41750,34658)
pointsTo(4850,25042)
pointsTo(22411,2928)
pointsTo(45968,32848)
pointsTo(17598,23944)
pointsTo(19787,36649)
pointsTo(39721,55596)
pointsTo(26874,7831)
pointsTo(33896,55665)
pointsTo(38595,31933)
pointsTo(36251,31087)
pointsTo(30,1609)
pointsTo(22042,52953)
pointsTo(25754,12230)
pointsTo(39332,47532)
pointsTo(45119,55006)
pointsTo(24299,45243)
pointsTo(42097,27025)
pointsTo(7938,50635)
pointsTo(60247,49021)
pointsTo(51374,62771)
pointsTo(52257,56492)
pointsTo(56606,54898)
pointsTo(36747,26070)
pointsTo(29691,18767)
pointsTo(13773,35442)
pointsTo(55483,56057)
pointsTo(57654,6963)
pointsTo(25819,31990)
pointsTo(28086,16591)
pointsTo(41139,49763)
pointsTo(58165,4403)
pointsTo(8548,50586)
pointsTo(43400,4452)
pointsTo(24001,16738)
pointsTo(60539,52293)
pointsTo(38173,53763)
pointsTo(39185,6852)
pointsTo(20497,36639)
pointsTo(29718,25036)
pointsTo(5835,63830)
pointsTo(60364,43277)
pointsTo(9266,15498)
