path(549,1877)
path(502,2286)
path(913,1633)
path(30,3207)
path(1524,2200)
path(620,1451)
path(1527,2682)
path(458,2215)
path(1483,3181)
path(1175,2527)
path(457,1196)
path(1313,3383)
path(953,1527)
path(3011,3265)
path(1307,1579)
path(1008,2420)
path(697,2361)
path(428,2267)
path(367,2247)
path(2396,2646)
path(1401,1746)
path(566,2301)
path(1377,2286)
path(690,2279)
path(470,2928)
path(1076,3273)
path(1393,1835)
path(993,2994)
path(158,332)
path(357,3062)
path(2911,3234)
path(1157,1720)
path(348,2858)
path(543,3472)
path(1553,2303)
path(713,848)
path(1186,1932)
path(128,1685)
path(999,1425)
path(953,3029)
path(1934,2446)
path(1117,3179)
path(943,3046)
path(424,2232)
path(1185,2686)
path(120,2216)
path(475,1273)
path(1371,2828)
path(34,3935)
path(361,418)
path(484,3274)
path(461,1685)
path(1363,2039)
path(1037,1758)
path(938,3246)
path(184,323)
path(50,331)
path(1199,2618)
path(67,2071)
path(1429,2020)
path(980,3227)
path(1185,1532)
path(528,1905)
path(1180,2746)
path(1059,2178)
path(603,3106)
path(1972,2508)
path(1299,2459)
path(1243,2871)
path(500,3723)
path(444,2224)
path(1376,2894)
path(1334,1981)
path(508,3764)
path(368,2834)
path(1335,1863)
path(432,3685)
path(1517,3274)
path(39,1999)
path(3017,3098)
path(2162,2332)
path(29,2581)
path(436,2175)
path(1501,2884)
path(431,3022)
path(1152,3250)
path(59,1475)
path(1201,2731)
path(1152,2105)
path(1141,3224)
path(603,1641)
path(2105,2314)
path(541,3038)
path(372,3445)
path(959,2593)
path(1408,1752)
path(541,1284)
path(942,1755)
path(1107,2151)
path(424,3826)
