q02("XZPRJAQUIT","HIJWFUIXZW","MMRT95948")
q02("LJTQNRADDE","LBWNYFFXLE","MPST97245")
q02("LAHDAQSHDH","FLSJAAHZFV","PPST33241")
q02("ZQIFJDKELW","QVQUBQZYBV","PNSR12313")
q02("XBOMZZLMYY","WUXOMRFHUV","NOQT93992")
q02("NZAGIYTNBZ","XREBAHLPML","MPST39293")
q02("JPFGFSRITJ","USBERWVGZL","PNRQ13308")
q02("GZKLILQZHS","QRXLBLDMST","PNQS89896")
q02("DKESTAKTIZ","UPIHJQYFYL","NPTQ40957")
q02("DVLPCJXUDW","FZGDNARHVI","PMSQ44627")
q02("YKYFSDNJDA","BEXHHHFVVA","PPQS78225")
q02("HDXWUVMICW","ONPJNQDJHJ","MOQT02542")
q02("CBBYSJIRQV","KXQTHEAKTQ","OOTS99501")
q02("RQTGRTDYAC","MGVUXJBIKZ","MMRS57850")
q02("CGLTYGSWUD","TJGSRNANJV","PMSS74452")
q02("AQCKDAKCHG","QVIGRPXJRK","ONTS27131")
q02("BPUVFXXNIC","JYAWDHDGEP","NNRQ60641")
q02("XFOLNZGHWE","FKFTCLLYUF","PPRS84691")
q02("PGYBQGCHDM","CXJHWRPWUY","PORQ18652")
q02("HMLGPMBDWJ","TEIBJNITDT","MOQQ62512")
q02("RKEIGIBJBU","KYNTMHKSKD","NMQS49153")
q02("ENKWUDQUZZ","RVUDSHDOCF","ONRT82250")
q02("KNLRBDMPBX","QXVVQESBZI","ONTS43713")
q02("OZUYXYGOVR","NQTGQVCEUN","MMRR08091")
q02("AWGYHLDPKN","FZLOQZVRSB","PMRQ83398")
q02("DOJBDJYFEH","WPCWHLUCGC","NOQT50492")
q02("JRNXIPVDEZ","KAQNHVLSHI","OMTR20670")
q02("DLMDTEHNPX","ELPOTZTWHH","PNQT75781")
q02("BLVHSJLLYK","LQTKWLKBHT","NNST33755")
q02("LJLVPQYUHB","GSTYHJGNKM","PMSQ49815")
q02("TUBMLBXAII","LENSIEVZGU","ONTQ82551")
q02("RZBTOBFVAY","WANDEXULNW","MOQT20914")
q02("GSVKECWELW","SUXDRDMPBD","OMSR70352")
q02("MHXCMKBKYZ","BOGKLKVNJE","NNRS18373")
q02("MBUUMNCSZI","ZBRLTFDSIA","NPRS49313")
q02("TGWIWJUKGP","QNAWDPKLMK","PNQQ92041")
q02("QIOCYNNRFV","BFVETLUQNU","MNTR44041")
q02("TLUHKQKJSK","LXLCIUGOLE","OPST41592")
q02("SIMAZLRROE","IOJYYPCDBL","OOTS90109")
q02("UPGYYHIYQX","FUMACBYUEK","PPTQ39724")
q02("EVKPQKKCXA","PHLARKDONS","MPSS58708")
q02("JLEQJLHIKJ","AJXTGZGLRV","OPTQ36765")
q02("SGVXNCTDYK","STMASCQGVA","NMTQ75235")
q02("XAGNSQWCVU","MGNBJYXOSF","POQS17539")
q02("EOCVEUDXOT","DCJPPPZYUK","OPRT81325")
q02("RVAQLXMOBE","XQWWLSTUMF","OOSR38786")
q02("ESYCTYMQSH","KYIMNCIGTB","MOQS08760")
q02("OXGJNUNLFL","DAORGFHZBP","NOSR62844")
q02("MOOKBXKVKE","NHIDWNKCWO","MPTR54412")
q02("JPFGFSRITJ","TUMHSPGWRC","PNRQ13308")
q02("DKESTAKTIZ","DGHYTLOFYR","NPTQ40957")
q02("QZJTYBTTMP","AXPXOUJQQU","OMST38777")
q02("XNERGDHPPD","MBFHFVHJNU","MMSQ74848")
q02("WVERJUYWBW","XNDJOPMBNH","OORR75036")
q02("HCXMHKCYCU","MPDZKJVPZN","NORT69305")
q02("BNMTSQOYBA","BCYFVKOSTM","NPQS06299")
q02("BFJEKVHGTJ","JBXNUGRCHP","MNTQ14254")
q02("IGDOYTLPVH","IYWUYXGZMS","OMTT23324")
q02("UHNCRDMCDM","QZQDWRVOID","NORR20398")
q02("IPIWQFHVVZ","EGBXBHYGFB","OPSQ30683")
q02("MSBANFKUOX","VJOBQOGXRR","MORR33162")
q02("UFCOBQSNFZ","ZBYOVDZNNA","NORS86675")
q02("ZCRMWHKMDR","NKGZSWTDHL","OMQS35364")
q02("TVAAMWRNOS","AUOYSZISBE","MOTR04909")
q02("RQYNNOYDBP","FLDVFKVBDQ","NMQR77581")
q02("LWVOYZSADX","WCQCDAUPCF","NNRQ92643")
q02("KCDMVGERZE","IACBYXPWAT","MNSR30133")
q02("CKVMSKMUWK","XVRXVHJLTX","PNQS47335")
q02("TPZZCCXYAE","JCHFRWOVVX","MPTS52240")
q02("EFRJMAPBUE","BKCWFWTILA","NOQQ29084")
q02("QTAFRGKYEP","RDKQRRXSMN","OPSS86412")
q02("YRWTLJRWBL","QULDZJWLNS","MPQS50983")
q02("GHOXRQXHLP","SXGZOQSQJX","MPQT77065")
q02("EVMYTAQPJE","WIGTDZOMSQ","MOSQ08193")
q02("UEHKFCOTWH","LSIJCXFMFX","MNQT03806")
q02("GOKNJPDUXM","HDHVCTPJPC","PNTQ40640")
q02("KPHGBBQBCJ","TJCCXZOZKT","OMRS07753")
q02("NNSCOIWKJT","FKZZWFKOMU","POQS74440")
q02("KQUUNKNMEZ","QSWNTUHDAL","OPQS37969")
q02("HELBHKHZTO","IQXOOBDCJY","NNTT16423")
q02("NDRIOXVWTN","LBWQKYDJNM","MOTS81235")
q02("PIFRHLTAGB","DHWSWLBJHF","PPRS94203")
q02("LZHYZICAIF","FWEWAXZROF","NORQ71834")
q02("YGIMERHLHN","YKWKYZZUJP","MOQR66988")
q02("XNERGDHPPD","EOOZBDMCCZ","MMSQ74848")
q02("KPHGBBQBCJ","XPTAFWBITP","OMRS07753")
q02("ETBXSKUILD","SEDKXGSWDA","MNSS15191")
q02("FYCKWJVRMX","IIXGFLFYVD","PMST07479")
q02("PMNNLXDYFY","GAGHOEWADG","PPST88163")
q02("GZKLILQZHS","XQYENDWAOF","PNQS89896")
q02("KQHOTPZZMH","BNKPKELSAL","OMRR64327")
q02("PUSYQOYMET","WXMDESRVJX","OMRT45260")
q02("PBLLUIAMQX","LOWYKIFLFP","PORQ58156")
q02("XJUHOQZDMG","PAUFMRPUVJ","PMTS83646")
q02("NZAGIYTNBZ","CMEQQCEPVS","MPST39293")
q02("JIXOHPLGUF","QZIJNCSLNO","MPTT25923")
q02("SUVIAQBVNX","WBORGMMMNY","OMRQ52750")
q02("USVHGACMBB","NSDBOFPQMB","OMSQ61002")
q02("FFWEBFTPPH","TROUESYVWA","ONRS88688")
q02("DASAMBYFTH","PEWHZYJREB","PMQR49496")
